# Incomplete, but valid and solvable; rated as medium.
0 0 5 8 0 9 3 0 0
0 0 0 0 4 0 0 6 0
8 3 0 0 2 0 0 1 0
0 0 9 1 0 0 2 0 5
1 0 0 0 0 0 0 0 3
6 0 2 0 0 4 7 0 0
0 2 0 0 1 0 0 7 9
0 6 0 0 9 0 0 0 0
0 0 4 5 0 2 1 0 0  
